Lab2/code/simple_trans/simplex.vcd
$date
     Mar 11, 2016       01:07:13
$end

$version
 SystemC 2.3.1-Accellera --- Mar  9 2016 23:20:51
$end

$timescale
     1 ps
$end

$scope module SystemC $end
$var wire    1  aaaaa  clock       $end
$var wire    1  aaaab  timeout       $end
$var wire    1  aaaac  start       $end
$var wire   32  aaaad  packet1.info [31:0]  $end
$var wire   32  aaaae  packet1.seq [31:0]  $end
$var wire   32  aaaaf  packet1.retry [31:0]  $end
$var wire   32  aaaag  packet2.info [31:0]  $end
$var wire   32  aaaah  packet2.seq [31:0]  $end
$var wire   32  aaaai  packet2.retry [31:0]  $end
$var wire   32  aaaaj  packet3.info [31:0]  $end
$var wire   32  aaaak  packet3.seq [31:0]  $end
$var wire   32  aaaal  packet3.retry [31:0]  $end
$var wire   32  aaaam  packet4.info [31:0]  $end
$var wire   32  aaaan  packet4.seq [31:0]  $end
$var wire   32  aaaao  packet4.retry [31:0]  $end
$var wire   32  aaaap  dout [31:0]  $end
$var wire   32  aaaaq  count [31:0]  $end
$upscope $end
$enddefinitions  $end

$comment
All initial values are dumped below at time 0 sec = 0 timescale units.
$end

$dumpvars
1aaaaa
0aaaab
0aaaac
b101001 aaaad
b1 aaaae
b1 aaaaf
b0 aaaag
b0 aaaah
b0 aaaai
b0 aaaaj
b0 aaaak
b0 aaaal
b101001 aaaam
b1 aaaan
b1 aaaao
b0 aaaap
b100 aaaaq
$end

#10000
0aaaaa

#15000
b11001100110011001100110011001100 aaaag
b1 aaaah
b10 aaaai
b11001100110011001100110011001100 aaaaj
b1 aaaak
b10 aaaal
b101001 aaaap

#20000
1aaaaa
b10110011010110 aaaad
b10 aaaae
b0 aaaaf
b10110011010110 aaaam
b10 aaaan
b0 aaaao
b11 aaaaq

#30000
0aaaaa
b10 aaaah
b11 aaaai
b10 aaaak
b11 aaaal
b10110011010110 aaaap

#40000
1aaaaa
b101111110010000 aaaad
b11 aaaae
b101111110010000 aaaam
b11 aaaan
b10 aaaaq

#45000
b11 aaaah
b100 aaaai
b11 aaaak
b100 aaaal
b101111110010000 aaaap

#50000
0aaaaa

#60000
1aaaaa
b101101011110001 aaaad
b100 aaaae
b101101011110001 aaaam
b100 aaaan
b1 aaaaq

#70000
0aaaaa

#75000
b100 aaaah
b101 aaaai
b100 aaaak
b101 aaaal
b101101011110001 aaaap

#80000
1aaaaa
b111101011 aaaad
b101 aaaae
b111101011 aaaam
b0 aaaan
b0 aaaaq

#90000
0aaaaa

#100000
1aaaaa
b1 aaaaf
b101 aaaan
b1 aaaao
b100 aaaaq

#105000
b101 aaaah
b110 aaaai
b101 aaaak
b110 aaaal
b111101011 aaaap

#110000
0aaaaa

#120000
1aaaaa
b1010100111100 aaaad
b110 aaaae
b0 aaaaf
b1010100111100 aaaam
b110 aaaan
b0 aaaao
b11 aaaaq

#130000
0aaaaa

#135000
b110 aaaah
b111 aaaai
b110 aaaak
b111 aaaal
b1010100111100 aaaap

#140000
1aaaaa
b111100111110 aaaad
b111 aaaae
b111100111110 aaaam
b111 aaaan
b10 aaaaq

#150000
0aaaaa
b0 aaaah
b1000 aaaai
b111 aaaak
b1000 aaaal
b111100111110 aaaap

#160000
1aaaaa
b1 aaaaf
b1 aaaao
b1 aaaaq

#170000
0aaaaa

#180000
1aaaaa
b0 aaaaq

#190000
0aaaaa

#200000
1aaaaa
b10 aaaaf
b10 aaaao
b100 aaaaq

#210000
0aaaaa

#220000
1aaaaa
b11 aaaaq

#230000
0aaaaa

#240000
1aaaaa
b10 aaaaq

#250000
0aaaaa

#260000
1aaaaa
b1 aaaaq

#270000
0aaaaa

#280000
1aaaaa
b0 aaaaq

#290000
0aaaaa

#300000
1aaaaa
b11 aaaaf
b11 aaaao
b100 aaaaq

#310000
0aaaaa

#320000
1aaaaa
b11 aaaaq

#330000
0aaaaa

#340000
1aaaaa
b10 aaaaq

#350000
0aaaaa

#360000
1aaaaa
b1 aaaaq

#370000
0aaaaa

#380000
1aaaaa
b0 aaaaq

#390000
0aaaaa

#400000
1aaaaa
b100 aaaaf
b100 aaaao
b100 aaaaq

#410000
0aaaaa

#420000
1aaaaa
b11 aaaaq

#430000
0aaaaa

#440000
1aaaaa
b10 aaaaq

#450000
0aaaaa

#460000
1aaaaa
b1 aaaaq

#470000
0aaaaa

#480000
1aaaaa
b0 aaaaq

#490000
0aaaaa

#500000
1aaaaa
b101 aaaaf
b101 aaaao
b100 aaaaq

#510000
0aaaaa

#520000
1aaaaa
b11 aaaaq

#530000
0aaaaa

#540000
1aaaaa
b10 aaaaq

#550000
0aaaaa

#560000
1aaaaa
b1 aaaaq

#570000
0aaaaa

#580000
1aaaaa
b0 aaaaq

#590000
0aaaaa

#600000
1aaaaa
b110 aaaaf
b110 aaaao
b100 aaaaq

#610000
0aaaaa

#620000
1aaaaa
b11 aaaaq

#630000
0aaaaa

#640000
1aaaaa
b10 aaaaq

#650000
0aaaaa

#660000
1aaaaa
b1 aaaaq

#670000
0aaaaa

#680000
1aaaaa
b0 aaaaq

#690000
0aaaaa

#700000
1aaaaa
b111 aaaaf
b111 aaaao
b100 aaaaq

#710000
0aaaaa

#720000
1aaaaa
b11 aaaaq

#730000
0aaaaa

#740000
1aaaaa
b10 aaaaq

#750000
0aaaaa

#760000
1aaaaa
b1 aaaaq

#770000
0aaaaa

#780000
1aaaaa
b0 aaaaq

#790000
0aaaaa

#800000
1aaaaa
b1000 aaaaf
b1000 aaaao
b100 aaaaq

#810000
0aaaaa

#820000
1aaaaa
b11 aaaaq

#830000
0aaaaa

#840000
1aaaaa
b10 aaaaq

#850000
0aaaaa

#860000
1aaaaa
b1 aaaaq

#870000
0aaaaa

#880000
1aaaaa
b0 aaaaq

#890000
0aaaaa

#900000
1aaaaa
b1001 aaaaf
b1001 aaaao
b100 aaaaq

#910000
0aaaaa

#920000
1aaaaa
b11 aaaaq

#930000
0aaaaa

#940000
1aaaaa
b10 aaaaq

#950000
0aaaaa

#960000
1aaaaa
b1 aaaaq

#970000
0aaaaa

#980000
1aaaaa
b0 aaaaq

#990000
0aaaaa

#1000000
1aaaaa
b1010 aaaaf
b0 aaaan
b1010 aaaao
b100 aaaaq

#1010000
0aaaaa

#1020000
1aaaaa
b11 aaaaq

#1030000
0aaaaa

#1040000
1aaaaa
b10 aaaaq

#1050000
0aaaaa

#1060000
1aaaaa
b1 aaaaq

#1070000
0aaaaa

#1080000
1aaaaa
b0 aaaaq

#1090000
0aaaaa

#1100000
1aaaaa
b1011 aaaaf
b111 aaaan
b1011 aaaao
b100 aaaaq

#1110000
0aaaaa

#1120000
1aaaaa
b11 aaaaq

#1130000
0aaaaa

#1140000
1aaaaa
b10 aaaaq

#1150000
0aaaaa

#1160000
1aaaaa
b1 aaaaq

#1170000
0aaaaa

#1180000
1aaaaa
b0 aaaaq

#1190000
0aaaaa

#1200000
1aaaaa
b1100 aaaaf
b1100 aaaao
b100 aaaaq

#1210000
0aaaaa

#1220000
1aaaaa
b11 aaaaq

#1230000
0aaaaa

#1240000
1aaaaa
b10 aaaaq

#1250000
0aaaaa

#1260000
1aaaaa
b1 aaaaq

#1270000
0aaaaa

#1280000
1aaaaa
b0 aaaaq

#1290000
0aaaaa

#1300000
1aaaaa
b1101 aaaaf
b1101 aaaao
b100 aaaaq

#1310000
0aaaaa

#1320000
1aaaaa
b11 aaaaq

#1330000
0aaaaa

#1340000
1aaaaa
b10 aaaaq

#1350000
0aaaaa

#1360000
1aaaaa
b1 aaaaq

#1370000
0aaaaa

#1380000
1aaaaa
b0 aaaaq

#1390000
0aaaaa

#1400000
1aaaaa
b1110 aaaaf
b1110 aaaao
b100 aaaaq

#1410000
0aaaaa

#1420000
1aaaaa
b11 aaaaq

#1430000
0aaaaa

#1440000
1aaaaa
b10 aaaaq

#1450000
0aaaaa

#1460000
1aaaaa
b1 aaaaq

#1470000
0aaaaa

#1480000
1aaaaa
b0 aaaaq

#1490000
0aaaaa

#1500000
1aaaaa
b1111 aaaaf
b1111 aaaao
b100 aaaaq

#1510000
0aaaaa

#1520000
1aaaaa
b11 aaaaq

#1530000
0aaaaa

#1540000
1aaaaa
b10 aaaaq

#1550000
0aaaaa

#1560000
1aaaaa
b1 aaaaq

#1570000
0aaaaa

#1580000
1aaaaa
b0 aaaaq

#1590000
0aaaaa

#1600000
1aaaaa
b10000 aaaaf
b10000 aaaao
b100 aaaaq

#1610000
0aaaaa

#1620000
1aaaaa
b11 aaaaq

#1630000
0aaaaa

#1640000
1aaaaa
b10 aaaaq

#1650000
0aaaaa

#1660000
1aaaaa
b1 aaaaq

#1670000
0aaaaa

#1680000
1aaaaa
b0 aaaaq

#1690000
0aaaaa

#1700000
1aaaaa
b10001 aaaaf
b10001 aaaao
b100 aaaaq

#1710000
0aaaaa

#1720000
1aaaaa
b11 aaaaq

#1730000
0aaaaa

#1740000
1aaaaa
b10 aaaaq

#1750000
0aaaaa

#1760000
1aaaaa
b1 aaaaq

#1770000
0aaaaa

#1780000
1aaaaa
b0 aaaaq

#1790000
0aaaaa

#1800000
1aaaaa
b10010 aaaaf
b10010 aaaao
b100 aaaaq

#1810000
0aaaaa

#1820000
1aaaaa
b11 aaaaq

#1830000
0aaaaa

#1840000
1aaaaa
b10 aaaaq

#1850000
0aaaaa

#1860000
1aaaaa
b1 aaaaq

#1870000
0aaaaa

#1880000
1aaaaa
b0 aaaaq

#1890000
0aaaaa

#1900000
1aaaaa
b10011 aaaaf
b10011 aaaao
b100 aaaaq

#1910000
0aaaaa

#1920000
1aaaaa
b11 aaaaq

#1930000
0aaaaa

#1940000
1aaaaa
b10 aaaaq

#1950000
0aaaaa

#1960000
1aaaaa
b1 aaaaq

#1970000
0aaaaa

#1980000
1aaaaa
b0 aaaaq

#1990000
0aaaaa

#2000000
1aaaaa
b10100 aaaaf
b10100 aaaao
b100 aaaaq

#2010000
0aaaaa

#2020000
1aaaaa
b11 aaaaq

#2030000
0aaaaa

#2040000
1aaaaa
b10 aaaaq

#2050000
0aaaaa

#2060000
1aaaaa
b1 aaaaq

#2070000
0aaaaa

#2080000
1aaaaa
b0 aaaaq

#2090000
0aaaaa

#2100000
1aaaaa
b10101 aaaaf
b0 aaaan
b10101 aaaao
b100 aaaaq

#2110000
0aaaaa

#2120000
1aaaaa
b11 aaaaq

#2130000
0aaaaa

#2140000
1aaaaa
b10 aaaaq

#2150000
0aaaaa

#2160000
1aaaaa
b1 aaaaq

#2170000
0aaaaa

#2180000
1aaaaa
b0 aaaaq

#2190000
0aaaaa

#2200000
1aaaaa
b10110 aaaaf
b111 aaaan
b10110 aaaao
b100 aaaaq

#2210000
0aaaaa

#2220000
1aaaaa
b11 aaaaq

#2230000
0aaaaa

#2240000
1aaaaa
b10 aaaaq

#2250000
0aaaaa

#2260000
1aaaaa
b1 aaaaq

#2270000
0aaaaa

#2280000
1aaaaa
b0 aaaaq

#2290000
0aaaaa

#2300000
1aaaaa
b10111 aaaaf
b10111 aaaao
b100 aaaaq

#2310000
0aaaaa

#2320000
1aaaaa
b11 aaaaq

#2330000
0aaaaa

#2340000
1aaaaa
b10 aaaaq

#2350000
0aaaaa

#2360000
1aaaaa
b1 aaaaq

#2370000
0aaaaa

#2380000
1aaaaa
b0 aaaaq

#2390000
0aaaaa

#2400000
1aaaaa
b11000 aaaaf
b11000 aaaao
b100 aaaaq

#2410000
0aaaaa

#2420000
1aaaaa
b11 aaaaq

#2430000
0aaaaa

#2440000
1aaaaa
b10 aaaaq

#2450000
0aaaaa

#2460000
1aaaaa
b1 aaaaq

#2470000
0aaaaa

#2480000
1aaaaa
b0 aaaaq

#2490000
0aaaaa

#2500000
1aaaaa
b11001 aaaaf
b11001 aaaao
b100 aaaaq

#2510000
0aaaaa

#2520000
1aaaaa
b11 aaaaq

#2530000
0aaaaa

#2540000
1aaaaa
b10 aaaaq

#2550000
0aaaaa

#2560000
1aaaaa
b1 aaaaq

#2570000
0aaaaa

#2580000
1aaaaa
b0 aaaaq

#2590000
0aaaaa

#2600000
1aaaaa
b11010 aaaaf
b11010 aaaao
b100 aaaaq

#2610000
0aaaaa

#2620000
1aaaaa
b11 aaaaq

#2630000
0aaaaa

#2640000
1aaaaa
b10 aaaaq

#2650000
0aaaaa

#2660000
1aaaaa
b1 aaaaq

#2670000
0aaaaa

#2680000
1aaaaa
b0 aaaaq

#2690000
0aaaaa

#2700000
1aaaaa
b11011 aaaaf
b11011 aaaao
b100 aaaaq

#2710000
0aaaaa

#2720000
1aaaaa
b11 aaaaq

#2730000
0aaaaa

#2740000
1aaaaa
b10 aaaaq

#2750000
0aaaaa

#2760000
1aaaaa
b1 aaaaq

#2770000
0aaaaa

#2780000
1aaaaa
b0 aaaaq

#2790000
0aaaaa

#2800000
1aaaaa
b11100 aaaaf
b11100 aaaao
b100 aaaaq

#2810000
0aaaaa

#2820000
1aaaaa
b11 aaaaq

#2830000
0aaaaa

#2840000
1aaaaa
b10 aaaaq

#2850000
0aaaaa

#2860000
1aaaaa
b1 aaaaq

#2870000
0aaaaa

#2880000
1aaaaa
b0 aaaaq

#2890000
0aaaaa

#2900000
1aaaaa
b11101 aaaaf
b11101 aaaao
b100 aaaaq

#2910000
0aaaaa

#2920000
1aaaaa
b11 aaaaq

#2930000
0aaaaa

#2940000
1aaaaa
b10 aaaaq

#2950000
0aaaaa

#2960000
1aaaaa
b1 aaaaq

#2970000
0aaaaa

#2980000
1aaaaa
b0 aaaaq

#2990000
0aaaaa

#3000000
1aaaaa
b11110 aaaaf
b11110 aaaao
b100 aaaaq

#3010000
0aaaaa

#3020000
1aaaaa
b11 aaaaq

#3030000
0aaaaa

#3040000
1aaaaa
b10 aaaaq

#3050000
0aaaaa

#3060000
1aaaaa
b1 aaaaq

#3070000
0aaaaa

#3080000
1aaaaa
b0 aaaaq

#3090000
0aaaaa

#3100000
1aaaaa
b11111 aaaaf
b11111 aaaao
b100 aaaaq

#3110000
0aaaaa

#3120000
1aaaaa
b11 aaaaq

#3130000
0aaaaa

#3140000
1aaaaa
b10 aaaaq

#3150000
0aaaaa

#3160000
1aaaaa
b1 aaaaq

#3170000
0aaaaa

#3180000
1aaaaa
b0 aaaaq

#3190000
0aaaaa

#3200000
1aaaaa
b100000 aaaaf
b100000 aaaao
b100 aaaaq

#3210000
0aaaaa

#3220000
1aaaaa
b11 aaaaq

#3230000
0aaaaa

#3240000
1aaaaa
b10 aaaaq

#3250000
0aaaaa

#3260000
1aaaaa
b1 aaaaq

#3270000
0aaaaa

#3280000
1aaaaa
b0 aaaaq

#3290000
0aaaaa

#3300000
1aaaaa
b100001 aaaaf
b100001 aaaao
b100 aaaaq

#3310000
0aaaaa

#3320000
1aaaaa
b11 aaaaq

#3330000
0aaaaa

#3340000
1aaaaa
b10 aaaaq

#3350000
0aaaaa

#3360000
1aaaaa
b1 aaaaq

#3370000
0aaaaa

#3380000
1aaaaa
b0 aaaaq

#3390000
0aaaaa

#3400000
1aaaaa
b100010 aaaaf
b100010 aaaao
b100 aaaaq

#3410000
0aaaaa

#3420000
1aaaaa
b11 aaaaq

#3430000
0aaaaa

#3440000
1aaaaa
b10 aaaaq

#3450000
0aaaaa

#3460000
1aaaaa
b1 aaaaq

#3470000
0aaaaa

#3480000
1aaaaa
b0 aaaaq

#3490000
0aaaaa

#3500000
1aaaaa
b100011 aaaaf
b100011 aaaao
b100 aaaaq

#3510000
0aaaaa

#3520000
1aaaaa
b11 aaaaq

#3530000
0aaaaa

#3540000
1aaaaa
b10 aaaaq

#3550000
0aaaaa

#3560000
1aaaaa
b1 aaaaq

#3570000
0aaaaa

#3580000
1aaaaa
b0 aaaaq

#3590000
0aaaaa

#3600000
1aaaaa
b100100 aaaaf
b100100 aaaao
b100 aaaaq

#3610000
0aaaaa

#3620000
1aaaaa
b11 aaaaq

#3630000
0aaaaa

#3640000
1aaaaa
b10 aaaaq

#3650000
0aaaaa

#3660000
1aaaaa
b1 aaaaq

#3670000
0aaaaa

#3680000
1aaaaa
b0 aaaaq

#3690000
0aaaaa

#3700000
1aaaaa
b100101 aaaaf
b0 aaaan
b100101 aaaao
b100 aaaaq

#3710000
0aaaaa

#3720000
1aaaaa
b11 aaaaq

#3730000
0aaaaa

#3740000
1aaaaa
b10 aaaaq

#3750000
0aaaaa

#3760000
1aaaaa
b1 aaaaq

#3770000
0aaaaa

#3780000
1aaaaa
b0 aaaaq

#3790000
0aaaaa

#3800000
1aaaaa
b100110 aaaaf
b111 aaaan
b100110 aaaao
b100 aaaaq

#3810000
0aaaaa

#3820000
1aaaaa
b11 aaaaq

#3830000
0aaaaa

#3840000
1aaaaa
b10 aaaaq

#3850000
0aaaaa

#3860000
1aaaaa
b1 aaaaq

#3870000
0aaaaa

#3880000
1aaaaa
b0 aaaaq

#3890000
0aaaaa

#3900000
1aaaaa
b100111 aaaaf
b0 aaaan
b100111 aaaao
b100 aaaaq

#3910000
0aaaaa

#3920000
1aaaaa
b11 aaaaq

#3930000
0aaaaa

#3940000
1aaaaa
b10 aaaaq

#3950000
0aaaaa

#3960000
1aaaaa
b1 aaaaq

#3970000
0aaaaa

#3980000
1aaaaa
b0 aaaaq

#3990000
0aaaaa

#4000000
1aaaaa
b101000 aaaaf
b111 aaaan
b101000 aaaao
b100 aaaaq

#4010000
0aaaaa

#4020000
1aaaaa
b11 aaaaq

#4030000
0aaaaa

#4040000
1aaaaa
b10 aaaaq

#4050000
0aaaaa

#4060000
1aaaaa
b1 aaaaq

#4070000
0aaaaa

#4080000
1aaaaa
b0 aaaaq

#4090000
0aaaaa

#4100000
1aaaaa
b101001 aaaaf
b101001 aaaao
b100 aaaaq

#4110000
0aaaaa

#4120000
1aaaaa
b11 aaaaq

#4130000
0aaaaa

#4140000
1aaaaa
b10 aaaaq

#4150000
0aaaaa

#4160000
1aaaaa
b1 aaaaq

#4170000
0aaaaa

#4180000
1aaaaa
b0 aaaaq

#4190000
0aaaaa

#4200000
1aaaaa
b101010 aaaaf
b101010 aaaao
b100 aaaaq

#4210000
0aaaaa

#4220000
1aaaaa
b11 aaaaq

#4230000
0aaaaa

#4240000
1aaaaa
b10 aaaaq

#4250000
0aaaaa

#4260000
1aaaaa
b1 aaaaq

#4270000
0aaaaa

#4280000
1aaaaa
b0 aaaaq

#4290000
0aaaaa

#4300000
1aaaaa
b101011 aaaaf
b101011 aaaao
b100 aaaaq

#4310000
0aaaaa

#4320000
1aaaaa
b11 aaaaq

#4330000
0aaaaa

#4340000
1aaaaa
b10 aaaaq

#4350000
0aaaaa

#4360000
1aaaaa
b1 aaaaq

#4370000
0aaaaa

#4380000
1aaaaa
b0 aaaaq

#4390000
0aaaaa

#4400000
1aaaaa
b101100 aaaaf
b101100 aaaao
b100 aaaaq

#4410000
0aaaaa

#4420000
1aaaaa
b11 aaaaq

#4430000
0aaaaa

#4440000
1aaaaa
b10 aaaaq

#4450000
0aaaaa

#4460000
1aaaaa
b1 aaaaq

#4470000
0aaaaa

#4480000
1aaaaa
b0 aaaaq

#4490000
0aaaaa

#4500000
1aaaaa
b101101 aaaaf
b101101 aaaao
b100 aaaaq

#4510000
0aaaaa

#4520000
1aaaaa
b11 aaaaq

#4530000
0aaaaa

#4540000
1aaaaa
b10 aaaaq

#4550000
0aaaaa

#4560000
1aaaaa
b1 aaaaq

#4570000
0aaaaa

#4580000
1aaaaa
b0 aaaaq

#4590000
0aaaaa

#4600000
1aaaaa
b101110 aaaaf
b101110 aaaao
b100 aaaaq

#4610000
0aaaaa

#4620000
1aaaaa
b11 aaaaq

#4630000
0aaaaa

#4640000
1aaaaa
b10 aaaaq

#4650000
0aaaaa

#4660000
1aaaaa
b1 aaaaq

#4670000
0aaaaa

#4680000
1aaaaa
b0 aaaaq

#4690000
0aaaaa

#4700000
1aaaaa
b101111 aaaaf
b101111 aaaao
b100 aaaaq

#4710000
0aaaaa

#4720000
1aaaaa
b11 aaaaq

#4730000
0aaaaa

#4740000
1aaaaa
b10 aaaaq

#4750000
0aaaaa

#4760000
1aaaaa
b1 aaaaq

#4770000
0aaaaa

#4780000
1aaaaa
b0 aaaaq

#4790000
0aaaaa

#4800000
1aaaaa
b110000 aaaaf
b110000 aaaao
b100 aaaaq

#4810000
0aaaaa

#4820000
1aaaaa
b11 aaaaq

#4830000
0aaaaa

#4840000
1aaaaa
b10 aaaaq

#4850000
0aaaaa

#4860000
1aaaaa
b1 aaaaq

#4870000
0aaaaa

#4880000
1aaaaa
b0 aaaaq

#4890000
0aaaaa

#4900000
1aaaaa
b110001 aaaaf
b110001 aaaao
b100 aaaaq

#4910000
0aaaaa

#4920000
1aaaaa
b11 aaaaq

#4930000
0aaaaa

#4940000
1aaaaa
b10 aaaaq

#4950000
0aaaaa

#4960000
1aaaaa
b1 aaaaq

#4970000
0aaaaa

#4980000
1aaaaa
b0 aaaaq

#4990000
0aaaaa

#5000000
1aaaaa
b110010 aaaaf
b110010 aaaao
b100 aaaaq

#5010000
0aaaaa

#5020000
1aaaaa
b11 aaaaq

#5030000
0aaaaa

#5040000
1aaaaa
b10 aaaaq

#5050000
0aaaaa

#5060000
1aaaaa
b1 aaaaq

#5070000
0aaaaa

#5080000
1aaaaa
b0 aaaaq

#5090000
0aaaaa

#5100000
1aaaaa
b110011 aaaaf
b110011 aaaao
b100 aaaaq

#5110000
0aaaaa

#5120000
1aaaaa
b11 aaaaq

#5130000
0aaaaa

#5140000
1aaaaa
b10 aaaaq

#5150000
0aaaaa

#5160000
1aaaaa
b1 aaaaq

#5170000
0aaaaa

#5180000
1aaaaa
b0 aaaaq

#5190000
0aaaaa

#5200000
1aaaaa
b110100 aaaaf
b110100 aaaao
b100 aaaaq

#5210000
0aaaaa

#5220000
1aaaaa
b11 aaaaq

#5230000
0aaaaa

#5240000
1aaaaa
b10 aaaaq

#5250000
0aaaaa

#5260000
1aaaaa
b1 aaaaq

#5270000
0aaaaa

#5280000
1aaaaa
b0 aaaaq

#5290000
0aaaaa

#5300000
1aaaaa
b110101 aaaaf
b110101 aaaao
b100 aaaaq

#5310000
0aaaaa

#5320000
1aaaaa
b11 aaaaq

#5330000
0aaaaa

#5340000
1aaaaa
b10 aaaaq

#5350000
0aaaaa

#5360000
1aaaaa
b1 aaaaq

#5370000
0aaaaa

#5380000
1aaaaa
b0 aaaaq

#5390000
0aaaaa

#5400000
1aaaaa
b110110 aaaaf
b110110 aaaao
b100 aaaaq

#5410000
0aaaaa

#5420000
1aaaaa
b11 aaaaq

#5430000
0aaaaa

#5440000
1aaaaa
b10 aaaaq

#5450000
0aaaaa

#5460000
1aaaaa
b1 aaaaq

#5470000
0aaaaa

#5480000
1aaaaa
b0 aaaaq

#5490000
0aaaaa

#5500000
1aaaaa
b110111 aaaaf
b0 aaaan
b110111 aaaao
b100 aaaaq

#5510000
0aaaaa

#5520000
1aaaaa
b11 aaaaq

#5530000
0aaaaa

#5540000
1aaaaa
b10 aaaaq

#5550000
0aaaaa

#5560000
1aaaaa
b1 aaaaq

#5570000
0aaaaa

#5580000
1aaaaa
b0 aaaaq

#5590000
0aaaaa

#5600000
1aaaaa
b111000 aaaaf
b111 aaaan
b111000 aaaao
b100 aaaaq

#5610000
0aaaaa

#5620000
1aaaaa
b11 aaaaq

#5630000
0aaaaa

#5640000
1aaaaa
b10 aaaaq

#5650000
0aaaaa

#5660000
1aaaaa
b1 aaaaq

#5670000
0aaaaa

#5680000
1aaaaa
b0 aaaaq

#5690000
0aaaaa

#5700000
1aaaaa
b111001 aaaaf
b111001 aaaao
b100 aaaaq

#5710000
0aaaaa

#5720000
1aaaaa
b11 aaaaq

#5730000
0aaaaa

#5740000
1aaaaa
b10 aaaaq

#5750000
0aaaaa

#5760000
1aaaaa
b1 aaaaq

#5770000
0aaaaa

#5780000
1aaaaa
b0 aaaaq

#5790000
0aaaaa

#5800000
1aaaaa
b111010 aaaaf
b111010 aaaao
b100 aaaaq

#5810000
0aaaaa

#5820000
1aaaaa
b11 aaaaq

#5830000
0aaaaa

#5840000
1aaaaa
b10 aaaaq

#5850000
0aaaaa

#5860000
1aaaaa
b1 aaaaq

#5870000
0aaaaa

#5880000
1aaaaa
b0 aaaaq

#5890000
0aaaaa

#5900000
1aaaaa
b111011 aaaaf
b111011 aaaao
b100 aaaaq

#5910000
0aaaaa

#5920000
1aaaaa
b11 aaaaq

#5930000
0aaaaa

#5940000
1aaaaa
b10 aaaaq

#5950000
0aaaaa

#5960000
1aaaaa
b1 aaaaq

#5970000
0aaaaa

#5980000
1aaaaa
b0 aaaaq

#5990000
0aaaaa

#6000000
1aaaaa
b111100 aaaaf
b111100 aaaao
b100 aaaaq

#6010000
0aaaaa

#6020000
1aaaaa
b11 aaaaq

#6030000
0aaaaa

#6040000
1aaaaa
b10 aaaaq

#6050000
0aaaaa

#6060000
1aaaaa
b1 aaaaq

#6070000
0aaaaa

#6080000
1aaaaa
b0 aaaaq

#6090000
0aaaaa

#6100000
1aaaaa
b111101 aaaaf
b111101 aaaao
b100 aaaaq

#6110000
0aaaaa

#6120000
1aaaaa
b11 aaaaq

#6130000
0aaaaa

#6140000
1aaaaa
b10 aaaaq

#6150000
0aaaaa

#6160000
1aaaaa
b1 aaaaq

#6170000
0aaaaa

#6180000
1aaaaa
b0 aaaaq

#6190000
0aaaaa

#6200000
1aaaaa
b111110 aaaaf
b0 aaaan
b111110 aaaao
b100 aaaaq

#6210000
0aaaaa

#6220000
1aaaaa
b11 aaaaq

#6230000
0aaaaa

#6240000
1aaaaa
b10 aaaaq

#6250000
0aaaaa

#6260000
1aaaaa
b1 aaaaq

#6270000
0aaaaa

#6280000
1aaaaa
b0 aaaaq

#6290000
0aaaaa

#6300000
1aaaaa
b111111 aaaaf
b111 aaaan
b111111 aaaao
b100 aaaaq

#6310000
0aaaaa

#6320000
1aaaaa
b11 aaaaq

#6330000
0aaaaa

#6340000
1aaaaa
b10 aaaaq

#6350000
0aaaaa

#6360000
1aaaaa
b1 aaaaq

#6370000
0aaaaa

#6380000
1aaaaa
b0 aaaaq

#6390000
0aaaaa

#6400000
1aaaaa
b1000000 aaaaf
b1000000 aaaao
b100 aaaaq

#6410000
0aaaaa

#6420000
1aaaaa
b11 aaaaq

#6430000
0aaaaa

#6440000
1aaaaa
b10 aaaaq

#6450000
0aaaaa

#6460000
1aaaaa
b1 aaaaq

#6470000
0aaaaa

#6480000
1aaaaa
b0 aaaaq

#6490000
0aaaaa

#6500000
1aaaaa
b1000001 aaaaf
b1000001 aaaao
b100 aaaaq

#6510000
0aaaaa

#6520000
1aaaaa
b11 aaaaq

#6530000
0aaaaa

#6540000
1aaaaa
b10 aaaaq

#6550000
0aaaaa

#6560000
1aaaaa
b1 aaaaq

#6570000
0aaaaa

#6580000
1aaaaa
b0 aaaaq

#6590000
0aaaaa

#6600000
1aaaaa
b1000010 aaaaf
b1000010 aaaao
b100 aaaaq

#6610000
0aaaaa

#6620000
1aaaaa
b11 aaaaq

#6630000
0aaaaa

#6640000
1aaaaa
b10 aaaaq

#6650000
0aaaaa

#6660000
1aaaaa
b1 aaaaq

#6670000
0aaaaa

#6680000
1aaaaa
b0 aaaaq

#6690000
0aaaaa

#6700000
1aaaaa
b1000011 aaaaf
b1000011 aaaao
b100 aaaaq

#6710000
0aaaaa

#6720000
1aaaaa
b11 aaaaq

#6730000
0aaaaa

#6740000
1aaaaa
b10 aaaaq

#6750000
0aaaaa

#6760000
1aaaaa
b1 aaaaq

#6770000
0aaaaa

#6780000
1aaaaa
b0 aaaaq

#6790000
0aaaaa

#6800000
1aaaaa
b1000100 aaaaf
b1000100 aaaao
b100 aaaaq

#6810000
0aaaaa

#6820000
1aaaaa
b11 aaaaq

#6830000
0aaaaa

#6840000
1aaaaa
b10 aaaaq

#6850000
0aaaaa

#6860000
1aaaaa
b1 aaaaq

#6870000
0aaaaa

#6880000
1aaaaa
b0 aaaaq

#6890000
0aaaaa

#6900000
1aaaaa
b1000101 aaaaf
b1000101 aaaao
b100 aaaaq

#6910000
0aaaaa

#6920000
1aaaaa
b11 aaaaq

#6930000
0aaaaa

#6940000
1aaaaa
b10 aaaaq

#6950000
0aaaaa

#6960000
1aaaaa
b1 aaaaq

#6970000
0aaaaa

#6980000
1aaaaa
b0 aaaaq

#6990000
0aaaaa

#7000000
1aaaaa
b1000110 aaaaf
b1000110 aaaao
b100 aaaaq

#7010000
0aaaaa

#7020000
1aaaaa
b11 aaaaq

#7030000
0aaaaa

#7040000
1aaaaa
b10 aaaaq

#7050000
0aaaaa

#7060000
1aaaaa
b1 aaaaq

#7070000
0aaaaa

#7080000
1aaaaa
b0 aaaaq

#7090000
0aaaaa

#7100000
1aaaaa
b1000111 aaaaf
b1000111 aaaao
b100 aaaaq

#7110000
0aaaaa

#7120000
1aaaaa
b11 aaaaq

#7130000
0aaaaa

#7140000
1aaaaa
b10 aaaaq

#7150000
0aaaaa

#7160000
1aaaaa
b1 aaaaq

#7170000
0aaaaa

#7180000
1aaaaa
b0 aaaaq

#7190000
0aaaaa

#7200000
1aaaaa
b1001000 aaaaf
b1001000 aaaao
b100 aaaaq

#7210000
0aaaaa

#7220000
1aaaaa
b11 aaaaq

#7230000
0aaaaa

#7240000
1aaaaa
b10 aaaaq

#7250000
0aaaaa

#7260000
1aaaaa
b1 aaaaq

#7270000
0aaaaa

#7280000
1aaaaa
b0 aaaaq

#7290000
0aaaaa

#7300000
1aaaaa
b1001001 aaaaf
b0 aaaan
b1001001 aaaao
b100 aaaaq

#7310000
0aaaaa

#7320000
1aaaaa
b11 aaaaq

#7330000
0aaaaa

#7340000
1aaaaa
b10 aaaaq

#7350000
0aaaaa

#7360000
1aaaaa
b1 aaaaq

#7370000
0aaaaa

#7380000
1aaaaa
b0 aaaaq

#7390000
0aaaaa

